…
```r
library(tidyverse)
```


## 10.2 Creating tibbles


```r
as_tibble(iris)
```

```
## # A tibble: 150 × 5
##    Sepal.Length Sepal.Width Petal.Length Petal.Width Species
##           <dbl>       <dbl>        <dbl>       <dbl>  <fctr>
## 1           5.1         3.5          1.4         0.2  setosa
## 2           4.9         3.0          1.4         0.2  setosa
## 3           4.7         3.2          1.3         0.2  setosa
## 4           4.6         3.1          1.5         0.2  setosa
## 5           5.0         3.6          1.4         0.2  setosa
## 6           5.4         3.9          1.7         0.4  setosa
## 7           4.6         3.4          1.4         0.3  setosa
## 8           5.0         3.4          1.5         0.2  setosa
## 9           4.4         2.9          1.4         0.2  setosa
## 10          4.9         3.1          1.5         0.1  setosa
## # ... with 140 more rows
```
…
```r
newtibble <- tibble(
  a = lubridate::now() + runif(1e3) * 86400,
  b = lubridate::today() + runif(1e3) * 30,
  c = 1:1e3,
  d = runif(1e3),
  e = sample(letters, 1e3, replace = TRUE)
)
newtibble
```

```
## # A tibble: 1,000 × 5
##                      a          b     c         d     e
##                 <dttm>     <date> <int>     <dbl> <chr>
## 1  2017-05-31 10:14:09 2017-06-21     1 0.6937209     t
## 2  2017-05-31 21:18:09 2017-06-19     2 0.6296338     x
## 3  2017-06-01 02:58:05 2017-06-24     3 0.7261290     j
## 4  2017-05-31 22:43:51 2017-06-09     4 0.2822393     h
## 5  2017-06-01 07:21:29 2017-06-27     5 0.1007722     s
## 6  2017-05-31 13:36:04 2017-06-03     6 0.4758818     t
## 7  2017-05-31 22:27:51 2017-06-10     7 0.5230659     q
## 8  2017-06-01 07:10:47 2017-06-28     8 0.7052651     v
## 9  2017-05-31 22:17:54 2017-06-24     9 0.5878212     o
## 10 2017-06-01 07:21:25 2017-06-05    10 0.6848565     n
## # ... with 990 more rows
```
…
```r
as_tibble(mtcars)
```

```
## # A tibble: 32 × 11
##      mpg   cyl  disp    hp  drat    wt  qsec    vs    am  gear  carb
## *  <dbl> <dbl> <dbl> <dbl> <dbl> <dbl> <dbl> <dbl> <dbl> <dbl> <dbl>
## 1   21.0     6 160.0   110  3.90 2.620 16.46     0     1     4     4
## 2   21.0     6 160.0   110  3.90 2.875 17.02     0     1     4     4
## 3   22.8     4 108.0    93  3.85 2.320 18.61     1     1     4     1
## 4   21.4     6 258.0   110  3.08 3.215 19.44     1     0     3     1
## 5   18.7     8 360.0   175  3.15 3.440 17.02     0     0     3     2
## 6   18.1     6 225.0   105  2.76 3.460 20.22     1     0     3     1
## 7   14.3     8 360.0   245  3.21 3.570 15.84     0     0     3     4
## 8   24.4     4 146.7    62  3.69 3.190 20.00     1     0     4     2
## 9   22.8     4 140.8    95  3.92 3.150 22.90     1     0     4     2
## 10  19.2     6 167.6   123  3.92 3.440 18.30     1     0     4     4
## # ... with 22 more rows
```
…
3. If you have the name of a variable stored in an object, e.g. var <- "mpg", how can you extract the reference variable from a tibble?


```r
mpg
```

```
## # A tibble: 234 × 11
##    manufacturer      model displ  year   cyl      trans   drv   cty   hwy
##           <chr>      <chr> <dbl> <int> <int>      <chr> <chr> <int> <int>
## 1          audi         a4   1.8  1999     4   auto(l5)     f    18    29
## 2          audi         a4   1.8  1999     4 manual(m5)     f    21    29
## 3          audi         a4   2.0  2008     4 manual(m6)     f    20    31
## 4          audi         a4   2.0  2008     4   auto(av)     f    21    30
## 5          audi         a4   2.8  1999     6   auto(l5)     f    16    26
## 6          audi         a4   2.8  1999     6 manual(m5)     f    18    26
## 7          audi         a4   3.1  2008     6   auto(av)     f    18    27
## 8          audi a4 quattro   1.8  1999     4 manual(m5)     4    18    26
## 9          audi a4 quattro   1.8  1999     4   auto(l5)     4    16    25
## 10         audi a4 quattro   2.0  2008     4 manual(m6)     4    20    28
## # ... with 224 more rows, and 2 more variables: fl <chr>, class <chr>
```
…
