…
> fill {tidyr}
.direction	
Direction in which to fill missing values. Currently either "down" (the default) or "up".

## 12.6 Case Study


```r
who
```

```
## # A tibble: 7,240 x 60
##        country  iso2  iso3  year new_sp_m014 new_sp_m1524 new_sp_m2534
##          <chr> <chr> <chr> <int>       <int>        <int>        <int>
##  1 Afghanistan    AF   AFG  1980          NA           NA           NA
##  2 Afghanistan    AF   AFG  1981          NA           NA           NA
##  3 Afghanistan    AF   AFG  1982          NA           NA           NA
##  4 Afghanistan    AF   AFG  1983          NA           NA           NA
##  5 Afghanistan    AF   AFG  1984          NA           NA           NA
##  6 Afghanistan    AF   AFG  1985          NA           NA           NA
##  7 Afghanistan    AF   AFG  1986          NA           NA           NA
##  8 Afghanistan    AF   AFG  1987          NA           NA           NA
##  9 Afghanistan    AF   AFG  1988          NA           NA           NA
## 10 Afghanistan    AF   AFG  1989          NA           NA           NA
## # ... with 7,230 more rows, and 53 more variables: new_sp_m3544 <int>,
## #   new_sp_m4554 <int>, new_sp_m5564 <int>, new_sp_m65 <int>,
## #   new_sp_f014 <int>, new_sp_f1524 <int>, new_sp_f2534 <int>,
## #   new_sp_f3544 <int>, new_sp_f4554 <int>, new_sp_f5564 <int>,
## #   new_sp_f65 <int>, new_sn_m014 <int>, new_sn_m1524 <int>,
## #   new_sn_m2534 <int>, new_sn_m3544 <int>, new_sn_m4554 <int>,
## #   new_sn_m5564 <int>, new_sn_m65 <int>, new_sn_f014 <int>,
## #   new_sn_f1524 <int>, new_sn_f2534 <int>, new_sn_f3544 <int>,
## #   new_sn_f4554 <int>, new_sn_f5564 <int>, new_sn_f65 <int>,
…
```r
who1 <- who %>% 
  gather(new_sp_m014:newrel_f65, key = "key", value = "cases", na.rm = TRUE)
who1
```

```
## # A tibble: 76,046 x 6
##        country  iso2  iso3  year         key cases
##  *       <chr> <chr> <chr> <int>       <chr> <int>
##  1 Afghanistan    AF   AFG  1997 new_sp_m014     0
##  2 Afghanistan    AF   AFG  1998 new_sp_m014    30
##  3 Afghanistan    AF   AFG  1999 new_sp_m014     8
##  4 Afghanistan    AF   AFG  2000 new_sp_m014    52
##  5 Afghanistan    AF   AFG  2001 new_sp_m014   129
##  6 Afghanistan    AF   AFG  2002 new_sp_m014    90
##  7 Afghanistan    AF   AFG  2003 new_sp_m014   127
##  8 Afghanistan    AF   AFG  2004 new_sp_m014   139
##  9 Afghanistan    AF   AFG  2005 new_sp_m014   151
## 10 Afghanistan    AF   AFG  2006 new_sp_m014   193
## # ... with 76,036 more rows
```

```r
who1 %>% 
  count(key)
```

```
## # A tibble: 56 x 2
##             key     n
##           <chr> <int>
##  1  new_ep_f014  1032
##  2 new_ep_f1524  1021
##  3 new_ep_f2534  1021
##  4 new_ep_f3544  1021
##  5 new_ep_f4554  1017
##  6 new_ep_f5564  1017
##  7   new_ep_f65  1014
##  8  new_ep_m014  1038
##  9 new_ep_m1524  1026
## 10 new_ep_m2534  1020
## # ... with 46 more rows
```
```r
who2 <- who1 %>% 
  mutate(key = stringr::str_replace(key, "newrel", "new_rel"))
```

```
## Warning: package 'bindrcpp' was built under R version 3.3.3
```

```r
who2
```

```
## # A tibble: 76,046 x 6
##        country  iso2  iso3  year         key cases
##          <chr> <chr> <chr> <int>       <chr> <int>
##  1 Afghanistan    AF   AFG  1997 new_sp_m014     0
##  2 Afghanistan    AF   AFG  1998 new_sp_m014    30
##  3 Afghanistan    AF   AFG  1999 new_sp_m014     8
##  4 Afghanistan    AF   AFG  2000 new_sp_m014    52
##  5 Afghanistan    AF   AFG  2001 new_sp_m014   129
##  6 Afghanistan    AF   AFG  2002 new_sp_m014    90
##  7 Afghanistan    AF   AFG  2003 new_sp_m014   127
##  8 Afghanistan    AF   AFG  2004 new_sp_m014   139
##  9 Afghanistan    AF   AFG  2005 new_sp_m014   151
## 10 Afghanistan    AF   AFG  2006 new_sp_m014   193
## # ... with 76,036 more rows
```

```r
who3 <- who2 %>% 
  separate(key, c("new", "type", "sexage"), sep = "_")
who3
```

```
## # A tibble: 76,046 x 8
##        country  iso2  iso3  year   new  type sexage cases
##  *       <chr> <chr> <chr> <int> <chr> <chr>  <chr> <int>
##  1 Afghanistan    AF   AFG  1997   new    sp   m014     0
##  2 Afghanistan    AF   AFG  1998   new    sp   m014    30
##  3 Afghanistan    AF   AFG  1999   new    sp   m014     8
##  4 Afghanistan    AF   AFG  2000   new    sp   m014    52
##  5 Afghanistan    AF   AFG  2001   new    sp   m014   129
##  6 Afghanistan    AF   AFG  2002   new    sp   m014    90
##  7 Afghanistan    AF   AFG  2003   new    sp   m014   127
##  8 Afghanistan    AF   AFG  2004   new    sp   m014   139
##  9 Afghanistan    AF   AFG  2005   new    sp   m014   151
## 10 Afghanistan    AF   AFG  2006   new    sp   m014   193
## # ... with 76,036 more rows
```
…
```r
who4 <- who3 %>% 
  select(-new, -iso2, -iso3)

who5 <- who4 %>% 
  separate(sexage, c("sex", "age"), sep = 1)
who5
```

```
## # A tibble: 76,046 x 6
##        country  year  type   sex   age cases
##  *       <chr> <int> <chr> <chr> <chr> <int>
##  1 Afghanistan  1997    sp     m   014     0
##  2 Afghanistan  1998    sp     m   014    30
##  3 Afghanistan  1999    sp     m   014     8
##  4 Afghanistan  2000    sp     m   014    52
##  5 Afghanistan  2001    sp     m   014   129
##  6 Afghanistan  2002    sp     m   014    90
##  7 Afghanistan  2003    sp     m   014   127
##  8 Afghanistan  2004    sp     m   014   139
##  9 Afghanistan  2005    sp     m   014   151
## 10 Afghanistan  2006    sp     m   014   193
## # ... with 76,036 more rows
```

```r
who.final <- who %>%
  gather(code, value, new_sp_m014:newrel_f65, na.rm = TRUE) %>% 
  mutate(code = stringr::str_replace(code, "newrel", "new_rel")) %>%
  separate(code, c("new", "var", "sexage")) %>% 
  select(-new, -iso2, -iso3) %>% 
  separate(sexage, c("sex", "age"), sep = 1)
who.final
```

```
## # A tibble: 76,046 x 6
##        country  year   var   sex   age value
##  *       <chr> <int> <chr> <chr> <chr> <int>
##  1 Afghanistan  1997    sp     m   014     0
##  2 Afghanistan  1998    sp     m   014    30
##  3 Afghanistan  1999    sp     m   014     8
##  4 Afghanistan  2000    sp     m   014    52
##  5 Afghanistan  2001    sp     m   014   129
##  6 Afghanistan  2002    sp     m   014    90
##  7 Afghanistan  2003    sp     m   014   127
##  8 Afghanistan  2004    sp     m   014   139
##  9 Afghanistan  2005    sp     m   014   151
## 10 Afghanistan  2006    sp     m   014   193
## # ... with 76,036 more rows
```
…
1. In this case study I set na.rm = TRUE just to make it easier to check that we had the correct values. Is this reasonable? Think about how missing values are represented in this dataset. Are there implicit missing values? What’s the difference between an NA and zero?


```r
who.na <- who %>%
  gather(code, value, new_sp_m014:newrel_f65) %>% 
  mutate(code = stringr::str_replace(code, "newrel", "new_rel")) %>%
  separate(code, c("new", "var", "sexage")) %>% 
  select(-new, -iso2, -iso3) %>% 
  separate(sexage, c("sex", "age"), sep = 1)
who.na
```

```
## # A tibble: 405,440 x 6
##        country  year   var   sex   age value
##  *       <chr> <int> <chr> <chr> <chr> <int>
##  1 Afghanistan  1980    sp     m   014    NA
##  2 Afghanistan  1981    sp     m   014    NA
##  3 Afghanistan  1982    sp     m   014    NA
##  4 Afghanistan  1983    sp     m   014    NA
##  5 Afghanistan  1984    sp     m   014    NA
##  6 Afghanistan  1985    sp     m   014    NA
##  7 Afghanistan  1986    sp     m   014    NA
##  8 Afghanistan  1987    sp     m   014    NA
##  9 Afghanistan  1988    sp     m   014    NA
## 10 Afghanistan  1989    sp     m   014    NA
## # ... with 405,430 more rows
```
…
3. I claimed that iso2 and iso3 were redundant with country. Confirm this claim.


```r
who %>% count(country)
```

```
## # A tibble: 219 x 2
##                country     n
##                  <chr> <int>
##  1         Afghanistan    34
##  2             Albania    34
##  3             Algeria    34
##  4      American Samoa    34
##  5             Andorra    34
##  6              Angola    34
##  7            Anguilla    34
##  8 Antigua and Barbuda    34
##  9           Argentina    34
## 10             Armenia    34
## # ... with 209 more rows
```

```r
who %>% count(iso2)
```

```
## # A tibble: 219 x 2
##     iso2     n
##    <chr> <int>
##  1    AD    34
##  2    AE    34
##  3    AF    34
##  4    AG    34
##  5    AI    34
##  6    AL    34
##  7    AM    34
##  8    AN    30
##  9    AO    34
## 10    AR    34
## # ... with 209 more rows
```

```r
who %>% count(iso3)
```

```
## # A tibble: 219 x 2
##     iso3     n
##    <chr> <int>
##  1   ABW    34
##  2   AFG    34
##  3   AGO    34
##  4   AIA    34
##  5   ALB    34
##  6   AND    34
##  7   ANT    30
##  8   ARE    34
##  9   ARG    34
## 10   ARM    34
## # ... with 209 more rows
```

```r
who %>% count(country,iso2,iso3)
```

```
## # A tibble: 219 x 4
##                country  iso2  iso3     n
##                  <chr> <chr> <chr> <int>
##  1         Afghanistan    AF   AFG    34
##  2             Albania    AL   ALB    34
##  3             Algeria    DZ   DZA    34
##  4      American Samoa    AS   ASM    34
##  5             Andorra    AD   AND    34
##  6              Angola    AO   AGO    34
##  7            Anguilla    AI   AIA    34
##  8 Antigua and Barbuda    AG   ATG    34
##  9           Argentina    AR   ARG    34
## 10             Armenia    AM   ARM    34
## # ... with 209 more rows
```
4. For each country, year, and sex compute the total number of cases of TB. Make an informative visualisation of the data.


```r
who.final <- who %>%
  gather(code, value, new_sp_m014:newrel_f65, na.rm = TRUE) %>% 
  mutate(code = stringr::str_replace(code, "newrel", "new_rel")) %>%
  separate(code, c("new", "var", "sexage")) %>% 
  select(-new, -iso2, -iso3) %>% 
  separate(sexage, c("sex", "age"), sep = 1)
who.final
```

```
## # A tibble: 76,046 x 6
##        country  year   var   sex   age value
##  *       <chr> <int> <chr> <chr> <chr> <int>
##  1 Afghanistan  1997    sp     m   014     0
##  2 Afghanistan  1998    sp     m   014    30
##  3 Afghanistan  1999    sp     m   014     8
##  4 Afghanistan  2000    sp     m   014    52
##  5 Afghanistan  2001    sp     m   014   129
##  6 Afghanistan  2002    sp     m   014    90
##  7 Afghanistan  2003    sp     m   014   127
##  8 Afghanistan  2004    sp     m   014   139
##  9 Afghanistan  2005    sp     m   014   151
## 10 Afghanistan  2006    sp     m   014   193
## # ... with 76,036 more rows
```
…
