R-club-June-21
…
fill {tidyr} .direction

Direction in which to fill missing values. Currently either down (the default) or up.

12.6 Case Study

who

## # A tibble: 7,240 x 60
##        country  iso2  iso3  year new_sp_m014 new_sp_m1524 new_sp_m2534
##          <chr> <chr> <chr> <int>       <int>        <int>        <int>
##  1 Afghanistan    AF   AFG  1980          NA           NA           NA
##  2 Afghanistan    AF   AFG  1981          NA           NA           NA
##  3 Afghanistan    AF   AFG  1982          NA           NA           NA
##  4 Afghanistan    AF   AFG  1983          NA           NA           NA
##  5 Afghanistan    AF   AFG  1984          NA           NA           NA
##  6 Afghanistan    AF   AFG  1985          NA           NA           NA
##  7 Afghanistan    AF   AFG  1986          NA           NA           NA
##  8 Afghanistan    AF   AFG  1987          NA           NA           NA
##  9 Afghanistan    AF   AFG  1988          NA           NA           NA
## 10 Afghanistan    AF   AFG  1989          NA           NA           NA
## # ... with 7,230 more rows, and 53 more variables: new_sp_m3544 <int>,
## #   new_sp_m4554 <int>, new_sp_m5564 <int>, new_sp_m65 <int>,
## #   new_sp_f014 <int>, new_sp_f1524 <int>, new_sp_f2534 <int>,
## #   new_sp_f3544 <int>, new_sp_f4554 <int>, new_sp_f5564 <int>,
## #   new_sp_f65 <int>, new_sn_m014 <int>, new_sn_m1524 <int>,
## #   new_sn_m2534 <int>, new_sn_m3544 <int>, new_sn_m4554 <int>,
## #   new_sn_m5564 <int>, new_sn_m65 <int>, new_sn_f014 <int>,
## #   new_sn_f1524 <int>, new_sn_f2534 <int>, new_sn_f3544 <int>,
## #   new_sn_f4554 <int>, new_sn_f5564 <int>, new_sn_f65 <int>,
…
who1 <- who %>% 
  gather(new_sp_m014:newrel_f65, key = "key", value = "cases", na.rm = TRUE)
who1

## # A tibble: 76,046 x 6
##        country  iso2  iso3  year         key cases
##  *       <chr> <chr> <chr> <int>       <chr> <int>
##  1 Afghanistan    AF   AFG  1997 new_sp_m014     0
##  2 Afghanistan    AF   AFG  1998 new_sp_m014    30
##  3 Afghanistan    AF   AFG  1999 new_sp_m014     8
##  4 Afghanistan    AF   AFG  2000 new_sp_m014    52
##  5 Afghanistan    AF   AFG  2001 new_sp_m014   129
##  6 Afghanistan    AF   AFG  2002 new_sp_m014    90
##  7 Afghanistan    AF   AFG  2003 new_sp_m014   127
##  8 Afghanistan    AF   AFG  2004 new_sp_m014   139
##  9 Afghanistan    AF   AFG  2005 new_sp_m014   151
## 10 Afghanistan    AF   AFG  2006 new_sp_m014   193
## # ... with 76,036 more rows

who1 %>% 
  count(key)

## # A tibble: 56 x 2
##             key     n
##           <chr> <int>
##  1  new_ep_f014  1032
##  2 new_ep_f1524  1021
##  3 new_ep_f2534  1021
##  4 new_ep_f3544  1021
##  5 new_ep_f4554  1017
##  6 new_ep_f5564  1017
##  7   new_ep_f65  1014
##  8  new_ep_m014  1038
##  9 new_ep_m1524  1026
## 10 new_ep_m2534  1020
## # ... with 46 more rows

who2 <- who1 %>% 
  mutate(key = stringr::str_replace(key, "newrel", "new_rel"))

## Warning: package 'bindrcpp' was built under R version 3.3.3

who2

## # A tibble: 76,046 x 6
##        country  iso2  iso3  year         key cases
##          <chr> <chr> <chr> <int>       <chr> <int>
##  1 Afghanistan    AF   AFG  1997 new_sp_m014     0
##  2 Afghanistan    AF   AFG  1998 new_sp_m014    30
##  3 Afghanistan    AF   AFG  1999 new_sp_m014     8
##  4 Afghanistan    AF   AFG  2000 new_sp_m014    52
##  5 Afghanistan    AF   AFG  2001 new_sp_m014   129
##  6 Afghanistan    AF   AFG  2002 new_sp_m014    90
##  7 Afghanistan    AF   AFG  2003 new_sp_m014   127
##  8 Afghanistan    AF   AFG  2004 new_sp_m014   139
##  9 Afghanistan    AF   AFG  2005 new_sp_m014   151
## 10 Afghanistan    AF   AFG  2006 new_sp_m014   193
## # ... with 76,036 more rows

who3 <- who2 %>% 
  separate(key, c("new", "type", "sexage"), sep = "_")
who3

## # A tibble: 76,046 x 8
##        country  iso2  iso3  year   new  type sexage cases
##  *       <chr> <chr> <chr> <int> <chr> <chr>  <chr> <int>
##  1 Afghanistan    AF   AFG  1997   new    sp   m014     0
##  2 Afghanistan    AF   AFG  1998   new    sp   m014    30
##  3 Afghanistan    AF   AFG  1999   new    sp   m014     8
##  4 Afghanistan    AF   AFG  2000   new    sp   m014    52
##  5 Afghanistan    AF   AFG  2001   new    sp   m014   129
##  6 Afghanistan    AF   AFG  2002   new    sp   m014    90
##  7 Afghanistan    AF   AFG  2003   new    sp   m014   127
##  8 Afghanistan    AF   AFG  2004   new    sp   m014   139
##  9 Afghanistan    AF   AFG  2005   new    sp   m014   151
## 10 Afghanistan    AF   AFG  2006   new    sp   m014   193
## # ... with 76,036 more rows
…
## # A tibble: 1 x 2
##     new     n
##   <chr> <int>
## 1   new 76046

who4 <- who3 %>% 
  select(-new, -iso2, -iso3)

who5 <- who4 %>% 
  separate(sexage, c("sex", "age"), sep = 1)
who5

## # A tibble: 76,046 x 6
##        country  year  type   sex   age cases
##  *       <chr> <int> <chr> <chr> <chr> <int>
##  1 Afghanistan  1997    sp     m   014     0
##  2 Afghanistan  1998    sp     m   014    30
##  3 Afghanistan  1999    sp     m   014     8
##  4 Afghanistan  2000    sp     m   014    52
##  5 Afghanistan  2001    sp     m   014   129
##  6 Afghanistan  2002    sp     m   014    90
##  7 Afghanistan  2003    sp     m   014   127
##  8 Afghanistan  2004    sp     m   014   139
##  9 Afghanistan  2005    sp     m   014   151
## 10 Afghanistan  2006    sp     m   014   193
## # ... with 76,036 more rows

who.final <- who %>%
  gather(code, value, new_sp_m014:newrel_f65, na.rm = TRUE) %>% 
  mutate(code = stringr::str_replace(code, "newrel", "new_rel")) %>%
  separate(code, c("new", "var", "sexage")) %>% 
  select(-new, -iso2, -iso3) %>% 
  separate(sexage, c("sex", "age"), sep = 1)
who.final

## # A tibble: 76,046 x 6
##        country  year   var   sex   age value
##  *       <chr> <int> <chr> <chr> <chr> <int>
##  1 Afghanistan  1997    sp     m   014     0
##  2 Afghanistan  1998    sp     m   014    30
##  3 Afghanistan  1999    sp     m   014     8
##  4 Afghanistan  2000    sp     m   014    52
##  5 Afghanistan  2001    sp     m   014   129
##  6 Afghanistan  2002    sp     m   014    90
##  7 Afghanistan  2003    sp     m   014   127
##  8 Afghanistan  2004    sp     m   014   139
##  9 Afghanistan  2005    sp     m   014   151
## 10 Afghanistan  2006    sp     m   014   193
## # ... with 76,036 more rows

12.6.1 Exercises

In this case study I set na.rm = TRUE just to make it easier to check that we had the correct values. Is this reasonable? Think about how missing values are represented in this dataset. Are there implicit missing values? Whats the difference between an NA and zero?

who.na <- who %>%
  gather(code, value, new_sp_m014:newrel_f65) %>% 
  mutate(code = stringr::str_replace(code, "newrel", "new_rel")) %>%
  separate(code, c("new", "var", "sexage")) %>% 
  select(-new, -iso2, -iso3) %>% 
  separate(sexage, c("sex", "age"), sep = 1)
who.na

## # A tibble: 405,440 x 6
##        country  year   var   sex   age value
##  *       <chr> <int> <chr> <chr> <chr> <int>
##  1 Afghanistan  1980    sp     m   014    NA
##  2 Afghanistan  1981    sp     m   014    NA
##  3 Afghanistan  1982    sp     m   014    NA
##  4 Afghanistan  1983    sp     m   014    NA
##  5 Afghanistan  1984    sp     m   014    NA
##  6 Afghanistan  1985    sp     m   014    NA
##  7 Afghanistan  1986    sp     m   014    NA
##  8 Afghanistan  1987    sp     m   014    NA
##  9 Afghanistan  1988    sp     m   014    NA
## 10 Afghanistan  1989    sp     m   014    NA
## # ... with 405,430 more rows
…
I claimed that iso2 and iso3 were redundant with country. Confirm this claim.

who %>% count(country)

## # A tibble: 219 x 2
##                country     n
##                  <chr> <int>
##  1         Afghanistan    34
##  2             Albania    34
##  3             Algeria    34
##  4      American Samoa    34
##  5             Andorra    34
##  6              Angola    34
##  7            Anguilla    34
##  8 Antigua and Barbuda    34
##  9           Argentina    34
## 10             Armenia    34
## # ... with 209 more rows

who %>% count(iso2)

## # A tibble: 219 x 2
##     iso2     n
##    <chr> <int>
##  1    AD    34
##  2    AE    34
##  3    AF    34
##  4    AG    34
##  5    AI    34
##  6    AL    34
##  7    AM    34
##  8    AN    30
##  9    AO    34
## 10    AR    34
## # ... with 209 more rows

who %>% count(iso3)

## # A tibble: 219 x 2
##     iso3     n
##    <chr> <int>
##  1   ABW    34
##  2   AFG    34
##  3   AGO    34
##  4   AIA    34
##  5   ALB    34
##  6   AND    34
##  7   ANT    30
##  8   ARE    34
##  9   ARG    34
## 10   ARM    34
## # ... with 209 more rows

who %>% count(country,iso2,iso3)

## # A tibble: 219 x 4
##                country  iso2  iso3     n
##                  <chr> <chr> <chr> <int>
##  1         Afghanistan    AF   AFG    34
##  2             Albania    AL   ALB    34
##  3             Algeria    DZ   DZA    34
##  4      American Samoa    AS   ASM    34
##  5             Andorra    AD   AND    34
##  6              Angola    AO   AGO    34
##  7            Anguilla    AI   AIA    34
##  8 Antigua and Barbuda    AG   ATG    34
##  9           Argentina    AR   ARG    34
## 10             Armenia    AM   ARM    34
## # ... with 209 more rows

For each country, year, and sex compute the total number of cases of TB. Make an informative visualisation of the data.

who.final <- who %>%
  gather(code, value, new_sp_m014:newrel_f65, na.rm = TRUE) %>% 
  mutate(code = stringr::str_replace(code, "newrel", "new_rel")) %>%
  separate(code, c("new", "var", "sexage")) %>% 
  select(-new, -iso2, -iso3) %>% 
  separate(sexage, c("sex", "age"), sep = 1)
who.final

## # A tibble: 76,046 x 6
##        country  year   var   sex   age value
##  *       <chr> <int> <chr> <chr> <chr> <int>
##  1 Afghanistan  1997    sp     m   014     0
##  2 Afghanistan  1998    sp     m   014    30
##  3 Afghanistan  1999    sp     m   014     8
##  4 Afghanistan  2000    sp     m   014    52
##  5 Afghanistan  2001    sp     m   014   129
##  6 Afghanistan  2002    sp     m   014    90
##  7 Afghanistan  2003    sp     m   014   127
##  8 Afghanistan  2004    sp     m   014   139
##  9 Afghanistan  2005    sp     m   014   151
## 10 Afghanistan  2006    sp     m   014   193
## # ... with 76,036 more rows

summary.who.final<- who.final %>% 
  group_by(country, year, sex) %>%
  summarize(totalnumber=sum(value))
summary.who.final

## # A tibble: 6,921 x 4
## # Groups:   country, year [?]
##        country  year   sex totalnumber
##          <chr> <int> <chr>       <int>
##  1 Afghanistan  1997     f         102
##  2 Afghanistan  1997     m          26
##  3 Afghanistan  1998     f        1207
##  4 Afghanistan  1998     m         571
##  5 Afghanistan  1999     f         517
##  6 Afghanistan  1999     m         228
##  7 Afghanistan  2000     f        1751
##  8 Afghanistan  2000     m         915
##  9 Afghanistan  2001     f        3062
## 10 Afghanistan  2001     m        1577
## # ... with 6,911 more rows
…
airports

## # A tibble: 1,458 x 8
##      faa                           name      lat        lon   alt    tz
##    <chr>                          <chr>    <dbl>      <dbl> <int> <dbl>
##  1   04G              Lansdowne Airport 41.13047  -80.61958  1044    -5
##  2   06A  Moton Field Municipal Airport 32.46057  -85.68003   264    -6
##  3   06C            Schaumburg Regional 41.98934  -88.10124   801    -6
##  4   06N                Randall Airport 41.43191  -74.39156   523    -5
##  5   09J          Jekyll Island Airport 31.07447  -81.42778    11    -5
##  6   0A9 Elizabethton Municipal Airport 36.37122  -82.17342  1593    -5
##  7   0G6        Williams County Airport 41.46731  -84.50678   730    -5
##  8   0G7  Finger Lakes Regional Airport 42.88356  -76.78123   492    -5
##  9   0P2   Shoestring Aviation Airfield 39.79482  -76.64719  1000    -5
## 10   0S9          Jefferson County Intl 48.05381 -122.81064   108    -8
## # ... with 1,448 more rows, and 2 more variables: dst <chr>, tzone <chr>

planes

## # A tibble: 3,322 x 9
##    tailnum  year                    type     manufacturer     model
##      <chr> <int>                   <chr>            <chr>     <chr>
##  1  N10156  2004 Fixed wing multi engine          EMBRAER EMB-145XR
##  2  N102UW  1998 Fixed wing multi engine AIRBUS INDUSTRIE  A320-214
##  3  N103US  1999 Fixed wing multi engine AIRBUS INDUSTRIE  A320-214
##  4  N104UW  1999 Fixed wing multi engine AIRBUS INDUSTRIE  A320-214
##  5  N10575  2002 Fixed wing multi engine          EMBRAER EMB-145LR
##  6  N105UW  1999 Fixed wing multi engine AIRBUS INDUSTRIE  A320-214
##  7  N107US  1999 Fixed wing multi engine AIRBUS INDUSTRIE  A320-214
##  8  N108UW  1999 Fixed wing multi engine AIRBUS INDUSTRIE  A320-214
##  9  N109UW  1999 Fixed wing multi engine AIRBUS INDUSTRIE  A320-214
## 10  N110UW  1999 Fixed wing multi engine AIRBUS INDUSTRIE  A320-214
## # ... with 3,312 more rows, and 4 more variables: engines <int>,
## #   seats <int>, speed <int>, engine <chr>

weather

## # A tibble: 26,130 x 15
##    origin  year month   day  hour  temp  dewp humid wind_dir wind_speed
##     <chr> <dbl> <dbl> <int> <int> <dbl> <dbl> <dbl>    <dbl>      <dbl>
##  1    EWR  2013     1     1     0 37.04 21.92 53.97      230   10.35702
##  2    EWR  2013     1     1     1 37.04 21.92 53.97      230   13.80936
##  3    EWR  2013     1     1     2 37.94 21.92 52.09      230   12.65858
##  4    EWR  2013     1     1     3 37.94 23.00 54.51      230   13.80936
##  5    EWR  2013     1     1     4 37.94 24.08 57.04      240   14.96014
##  6    EWR  2013     1     1     6 39.02 26.06 59.37      270   10.35702
##  7    EWR  2013     1     1     7 39.02 26.96 61.63      250    8.05546
##  8    EWR  2013     1     1     8 39.02 28.04 64.43      240   11.50780
##  9    EWR  2013     1     1     9 39.92 28.04 62.21      250   12.65858
## 10    EWR  2013     1     1    10 39.02 28.04 64.43      260   12.65858
## # ... with 26,120 more rows, and 5 more variables: wind_gust <dbl>,
## #   precip <dbl>, pressure <dbl>, visib <dbl>, time_hour <dttm>
…
