…
```r
diamonds %>% 
  count(carat)
```

```
## # A tibble: 273 × 2
##    carat     n
##    <dbl> <int>
## 1   0.20    12
## 2   0.21     9
## 3   0.22     5
## 4   0.23   293
## 5   0.24   254
## 6   0.25   212
## 7   0.26   253
## 8   0.27   233
## 9   0.28   198
## 10  0.29   130
## # ... with 263 more rows
```
…
```r
diamonds %>% 
  count(color, cut)
```

```
## Source: local data frame [35 x 3]
## Groups: color [?]
## 
##    color       cut     n
##    <ord>     <ord> <int>
## 1      D      Fair   163
## 2      D      Good   662
## 3      D Very Good  1513
## 4      D   Premium  1603
## 5      D     Ideal  2834
## 6      E      Fair   224
## 7      E      Good   933
## 8      E Very Good  2400
## 9      E   Premium  2337
## 10     E     Ideal  3903
## # ... with 25 more rows
```
…
